{
  "equipe": [
    {
      "id": 1,
      "nom": "eUnited",
      "logo": "https://d1u5p3l4wpay3k.cloudfront.net/smiteesports_gamepedia_en/thumb/f/f5/EUnitedlogo_square.png/300px-EUnitedlogo_square.png?version=b32c0ef0a87948f246b3c92b9fed9d4c",
      "joueurs": [
        {
          "id": 10,
          "role": "Solo",
          "image": "https://d1u5p3l4wpay3k.cloudfront.net/smiteesports_gamepedia_en/thumb/f/f7/DNL_Benj1_2016_Fall.png/220px-DNL_Benj1_2016_Fall.png?version=2213dc8633682831b7173febeb645142",
          "pseudo": "Benji",
          "prenom": "Ben",
          "nom": "McKinzey",
          "anniversaire": "01/02/1999",
          "origine": "NA"
        },
        {
          "id": 11,
          "role": "Jungle",
          "image": "https://d1u5p3l4wpay3k.cloudfront.net/smiteesports_gamepedia_en/thumb/9/98/NME_Shatt3red_2016_Fall.png/220px-NME_Shatt3red_2016_Fall.png?version=9e8fcbdae2f33b800225a23c077b3dfd",
          "pseudo": "Screammmmm",
          "prenom": "Lukas",
          "nom": "Spracklin",
          "anniversaire": "18/03/2001",
          "origine": "NA"
        },
        {
          "id": 12,
          "role": "Mid",
          "image": "https://d1u5p3l4wpay3k.cloudfront.net/smiteesports_gamepedia_en/thumb/1/1c/Venenu.PNG/220px-Venenu.PNG?version=788ed51d00b4e984e8ebb120b9280c87",
          "pseudo": "Venenu",
          "prenom": "Brandon",
          "nom": "Casale",
          "anniversaire": "",
          "origine": "NA"
        },
        {
          "id": 13,
          "role": "Hunter",
          "image": "https://d1u5p3l4wpay3k.cloudfront.net/smiteesports_gamepedia_en/thumb/b/be/NME_PandaCat_2016_Fall.png/220px-NME_PandaCat_2016_Fall.png?version=8b8376150b99bfe62c89e6f80e724134",
          "pseudo": "PandaCat",
          "prenom": "Maksim",
          "nom": "Yanevich",
          "anniversaire": "24/02/2000",
          "origine": "Ukraine"
        },
        {
          "id": 14,
          "role": "Suport",
          "image": "https://d1u5p3l4wpay3k.cloudfront.net/smiteesports_gamepedia_en/thumb/6/65/ALG_PolarBearMike_2016_Fall.png/220px-ALG_PolarBearMike_2016_Fall.png?version=74fd5ed25c49782d1147cf636e27b35b",
          "pseudo": "PolarBearMike",
          "prenom": "Michael",
          "nom": "Heiss",
          "anniversaire": "25/08/1996",
          "origine": "NA"
        }
      ],
      "origine": "NA",
      "palmares": [
        {
          "nomEvent": "SMITE World Championship 2018",
          "place": "1st",
          "date": " 2018-01-07 "
        },
        {
          "nomEvent": "2017 NA Regional Championship",
          "place": "1st",
          "date": " 2017-11-05 "
        },
        {
          "nomEvent": "2017 NA SPL Fall Season",
          "place": "1st",
          "date": " 2017-10-08 "
        }
      ]
    },
    {
      "id": 2,
      "nom": "Spacestation Gaming",
      "logo": "https://d1u5p3l4wpay3k.cloudfront.net/smiteesports_gamepedia_en/thumb/6/67/Spacestation_Gaming_logo.png/300px-Spacestation_Gaming_logo.png?version=ade68371742080a57d58e6368bf36078",
      "joueurs": [
        {
          "id": 20,
          "role": "Solo",
          "image": "https://d1u5p3l4wpay3k.cloudfront.net/smiteesports_gamepedia_en/thumb/6/64/Aquarius.png/220px-Aquarius.png?version=4e0363f4fae4c14758127dbb42425f9c",
          "pseudo": "Aquarius",
          "prenom": "Ryan ",
          "nom": "O'Neill",
          "anniversaire": "???",
          "origine": "Canada"
        },
        {
          "id": 21,
          "role": "Jungle",
          "image": "https://d1u5p3l4wpay3k.cloudfront.net/smiteesports_gamepedia_en/thumb/3/3a/SSG_Andinster_2017.png/220px-SSG_Andinster_2017.png?version=c2e62c5dacb2d7ce0c0e0afd43a9b27e",
          "pseudo": "andinster",
          "prenom": "Andrew ",
          "nom": "Woodward",
          "anniversaire": "02/07/1996",
          "origine": "NA"
        },
        {
          "id": 22,
          "role": "Mid",
          "image": "https://d1u5p3l4wpay3k.cloudfront.net/smiteesports_gamepedia_en/thumb/0/0a/SoaR_Baskin_2016_Fall.png/220px-SoaR_Baskin_2016_Fall.png?version=ce4876b53b41ba61bd51d9492c731349",
          "pseudo": "Baskin",
          "prenom": "Kim",
          "nom": "Woon-young",
          "anniversaire": "21/05/1998",
          "origine": "South-Korea"
        },
        {
          "id": 23,
          "role": "Hunter",
          "image": "https://d1u5p3l4wpay3k.cloudfront.net/smiteesports_gamepedia_en/thumb/2/29/LG_BaRRaCCuDDa_2016_Fall.png/220px-LG_BaRRaCCuDDa_2016_Fall.png?version=f5653333977e40dcc061c491d5c10b0f",
          "pseudo": "BaRRaCCuDDa",
          "prenom": "John",
          "nom": "Salter",
          "anniversaire": "01/01/1991",
          "origine": "NA"
        },
        {
          "id": 24,
          "role": "Suport",
          "image": "https://d1u5p3l4wpay3k.cloudfront.net/smiteesports_gamepedia_en/thumb/9/9c/LG_JeffHindla_2016_Fall.png/220px-LG_JeffHindla_2016_Fall.png?version=d6b4dd64fe49875c3ca06a6e5d0d98cc",
          "pseudo": "JeffHindla",
          "prenom": "Rosario ",
          "nom": "Vilardi",
          "anniversaire": "21/06/1993",
          "origine": "NA"
        }
      ],
      "origine": "NA",
      "palmares": [
        {
          "nomEvent": "2017 NA Regional Championship",
          "place": "3-4th",
          "date": "2017-11-05"
        },
        {
          "nomEvent": "SWC 2018 Wildcard",
          "place": "3rd",
          "date": "2017-11-04"
        },
        {
          "nomEvent": "2017 NA SPL Fall Season",
          "place": "3rd",
          "date": "2017-11-04"
        }
      ]
    },
    {
      "id": 3,
      "nom": "Splyce",
      "logo": "https://d1u5p3l4wpay3k.cloudfront.net/smiteesports_gamepedia_en/thumb/9/9e/Splycelogo_square.png/300px-Splycelogo_square.png?version=e4b5114997a75cbe19e744ac6ad063b1",
      "joueurs": [
        {
          "id": 30,
          "role": "Solo",
          "image": "https://d1u5p3l4wpay3k.cloudfront.net/smiteesports_gamepedia_en/thumb/e/e6/EGr_Divios_2016_Fall.png/220px-EGr_Divios_2016_Fall.png?version=a137268dac7a581ed18f6bd38abe9b70",
          "pseudo": "Divios",
          "prenom": "Nicklaus",
          "nom": "Neumeyer",
          "anniversaire": "22/09/1990",
          "origine": "Canada"
        },
        {
          "id": 31,
          "role": "Jungle",
          "image": "https://d1u5p3l4wpay3k.cloudfront.net/smiteesports_gamepedia_en/thumb/b/b1/YujiiiiSplyce.png/220px-YujiiiiSplyce.png?version=ab73567295eb806c5e98eed1730fd374",
          "pseudo": "Yujiiii",
          "prenom": "Yuji",
          "nom": "Box",
          "anniversaire": "22/05/2002",
          "origine": "NA"
        },
        {
          "id": 32,
          "role": "Mid",
          "image": "https://d1u5p3l4wpay3k.cloudfront.net/smiteesports_gamepedia_en/thumb/1/1b/EGr_TheBest_2016_Fall.png/220px-EGr_TheBest_2016_Fall.png?version=456ad31ce6005b293e0fec2ca6d356c1",
          "pseudo": "TheBest",
          "prenom": "Jeremy",
          "nom": "Dailey",
          "anniversaire": "25/06/1996",
          "origine": "NA"
        },
        {
          "id": 33,
          "role": "Hunter",
          "image": "https://d1u5p3l4wpay3k.cloudfront.net/smiteesports_gamepedia_en/thumb/c/cb/ALG_CycloneSpin_2016_Fall.png/220px-ALG_CycloneSpin_2016_Fall.png?version=57ace445de7fa12f473bd8f8255e7d83",
          "pseudo": "CycloneSpin",
          "prenom": "Jarod",
          "nom": "Nguyen",
          "anniversaire": "04/04/1999",
          "origine": "NA"
        },
        {
          "id": 34,
          "role": "Suport",
          "image": "https://d1u5p3l4wpay3k.cloudfront.net/smiteesports_gamepedia_en/thumb/b/bd/EGr_Aror_2016_Fall.png/220px-EGr_Aror_2016_Fall.png?version=b1ee0df2db13b2bb203b572ad0bb73e8",
          "pseudo": "Aror",
          "prenom": "Max",
          "nom": "Jackson",
          "anniversaire": "06/11/1994",
          "origine": "NA"
        }
      ],
      "origine": "NA",
      "palmares": []
    },
    {
      "id": 4,
      "nom": "Trifecta",
      "logo": "https://d1u5p3l4wpay3k.cloudfront.net/smiteesports_gamepedia_en/thumb/9/91/Trifectalogo_square.png/300px-Trifectalogo_square.png?version=7fc006bcfde10f4dba18ed8d7e7c6b6c",
      "joueurs": [
        {
          "id": 40,
          "role": "Solo",
          "image": "https://d1u5p3l4wpay3k.cloudfront.net/smiteesports_gamepedia_en/thumb/f/f1/SSG_ScaryD_2017.png/220px-SSG_ScaryD_2017.png?version=5733d392f734077544d3366174f8b184",
          "pseudo": "ScaryD",
          "prenom": "Ronald ",
          "nom": "Belair",
          "anniversaire": "19/02/1999",
          "origine": "NA"
        },
        {
          "id": 41,
          "role": "Jungle",
          "image": "https://d1u5p3l4wpay3k.cloudfront.net/smiteesports_gamepedia_en/thumb/2/27/Mask2.png/220px-Mask2.png?version=516b04a47b1b413b728e15b9d40cdebc",
          "pseudo": "Mask",
          "prenom": "Suharab",
          "nom": "Askarzada",
          "anniversaire": "15/07/1998",
          "origine": "NA"
        },
        {
          "id": 42,
          "role": "Mid",
          "image": "https://d1u5p3l4wpay3k.cloudfront.net/smiteesports_gamepedia_en/thumb/8/84/SoaR_Metyankey_2016_Fall.png/220px-SoaR_Metyankey_2016_Fall.png?version=0b28801cbfb48e40a480ee5f597ee89c",
          "pseudo": "Metyankey",
          "prenom": "Michael",
          "nom": "Fasciano",
          "anniversaire": "26/09/1997",
          "origine": "NA"
        },
        {
          "id": 43,
          "role": "Hunter",
          "image": "https://d1u5p3l4wpay3k.cloudfront.net/smiteesports_gamepedia_en/thumb/6/6e/SSG_Zapman_2017.png/220px-SSG_Zapman_2017.png?version=d8d26f950511147604c520ff3a09b63e",
          "pseudo": "Zapman",
          "prenom": "Steven ",
          "nom": "Zapas",
          "anniversaire": "24/10/1991",
          "origine": "NA"
        },
        {
          "id": 44,
          "role": "Suport",
          "image": "https://d1u5p3l4wpay3k.cloudfront.net/smiteesports_gamepedia_en/thumb/f/f8/Neirumah.png/220px-Neirumah.png?version=c812237a8d19efc0e0e62bd4ba5d3869",
          "pseudo": "NeiruMah",
          "prenom": "Neil ",
          "nom": "Mah",
          "anniversaire": "1993",
          "origine": "Canada"
        }
      ],
      "origine": "NA",
      "palmares": [
        {
          "nomEvent": "2017 NA Regional Championship",
          "place": "3-4th",
          "date": "2017-11-05"
        },
        {
          "nomEvent": "SWC 2018 Wildcard",
          "place": "3rd",
          "date": "2017-11-04"
        },
        {
          "nomEvent": "2017 NA SPL Fall Season",
          "place": "3rd",
          "date": "2017-11-04"
        }
      ]
    },
    {
      "id": 5,
      "nom": "mousesports",
      "logo": "https://d1u5p3l4wpay3k.cloudfront.net/smiteesports_gamepedia_en/thumb/f/f9/Mousesportslogo_square.png/300px-Mousesportslogo_square.png?version=dcd758a5047d540a99cfdc6d5fda00b5",
      "joueurs": [
        {
          "id": 50,
          "role": "Solo",
          "image": "https://d1u5p3l4wpay3k.cloudfront.net/smiteesports_gamepedia_en/thumb/6/62/SnG_Nika_2016_Fall.png/220px-SnG_Nika_2016_Fall.png?version=9dd6774ab5b97a4dd03b1a83ff5df23b",
          "pseudo": "Nika",
          "prenom": "Nika",
          "nom": "Pataraia",
          "anniversaire": "29/08/1998",
          "origine": "Georgia"
        },
        {
          "id": 51,
          "role": "Jungle",
          "image": "https://d1u5p3l4wpay3k.cloudfront.net/smiteesports_gamepedia_en/thumb/2/25/SnG_Cherryo_2016_Fall.png/220px-SnG_Cherryo_2016_Fall.png?version=cc689f378d61a4737e49f8597b2a3c3d",
          "pseudo": "Cherryo",
          "prenom": "Mohaned",
          "nom": "Walied",
          "anniversaire": "13/12/1997",
          "origine": "Kuwait"
        },
        {
          "id": 52,
          "role": "Mid",
          "image": "https://d1u5p3l4wpay3k.cloudfront.net/smiteesports_gamepedia_en/thumb/f/f8/DIG_BigManTingz_2016_Fall.png/220px-DIG_BigManTingz_2016_Fall.png?version=e98dadd4c7eed0f886466c537aea2b1d",
          "pseudo": "BigManTingz",
          "prenom": "Jordan",
          "nom": "Theaker",
          "anniversaire": "05/05/1998",
          "origine": "UK"
        },
        {
          "id": 53,
          "role": "Hunter",
          "image": "https://d1u5p3l4wpay3k.cloudfront.net/smiteesports_gamepedia_en/thumb/4/49/ELV_Jermain_2016_Fall.png/220px-ELV_Jermain_2016_Fall.png?version=59102fbde74ec588379feb545e1dd7c1",
          "pseudo": "Jermain",
          "prenom": "Ethan",
          "nom": "Batarsé",
          "anniversaire": "23/06/1995",
          "origine": "Germany"
        },
        {
          "id": 54,
          "role": "Suport",
          "image": "https://d1u5p3l4wpay3k.cloudfront.net/smiteesports_gamepedia_en/thumb/9/90/ELV_Dardez_2016_Fall.png/220px-ELV_Dardez_2016_Fall.png?version=6f39dc9ffcb3bc18f6d0a7cd0073b61f",
          "pseudo": "Dardez",
          "prenom": "Bastien",
          "nom": "Proust",
          "anniversaire": "???",
          "origine": "France"
        }
      ],
      "origine": "Germany",
      "palmares": []
    },
    {
      "id": 6,
      "nom": "NRG Esports",
      "logo": "https://d1u5p3l4wpay3k.cloudfront.net/smiteesports_gamepedia_en/thumb/5/50/NRG_eSportslogo_square.png/300px-NRG_eSportslogo_square.png?version=7dc4b5cc898d89e5d2b3ef2129adca0f",
      "joueurs": [
        {
          "id": 60,
          "role": "Solo",
          "image": "https://d1u5p3l4wpay3k.cloudfront.net/smiteesports_gamepedia_en/thumb/6/6a/Mianic.png/220px-Mianic.png?version=318ace3679ef19a124c3588350d36621",
          "pseudo": "maniaKK",
          "prenom": "João",
          "nom": "Ferreira",
          "anniversaire": "04/04/1994",
          "origine": "Portugal"
        },
        {
          "id": 61,
          "role": "Jungle",
          "image": "https://d1u5p3l4wpay3k.cloudfront.net/smiteesports_gamepedia_en/thumb/b/bd/NRG_Adapting_2016_Fall.png/220px-NRG_Adapting_2016_Fall.png?version=c4ad0eb7c5c1e28e6185afb8a9591a86",
          "pseudo": "Adapting",
          "prenom": "Kennet",
          "nom": "Ros",
          "anniversaire": "03/11/1996",
          "origine": "Sweden"
        },
        {
          "id": 62,
          "role": "Mid",
          "image": "https://d1u5p3l4wpay3k.cloudfront.net/smiteesports_gamepedia_en/thumb/0/09/NRG_Yammyn_2016_Fall.png/220px-NRG_Yammyn_2016_Fall.png?version=c557e049ddc27056424e6860b7d7ae79",
          "pseudo": "Yammyn",
          "prenom": "André",
          "nom": "Brännvall",
          "anniversaire": "06/12/1995",
          "origine": "Sweden"
        },
        {
          "id": 63,
          "role": "Hunter",
          "image": "https://d1u5p3l4wpay3k.cloudfront.net/smiteesports_gamepedia_en/thumb/c/cc/NRG_emilitoo_2016_Fall.png/220px-NRG_emilitoo_2016_Fall.png?version=88bcab8e0fbb55e9dbd4f4b4d6ca4e9b",
          "pseudo": "emilitoo",
          "prenom": "Emil Philip",
          "nom": "Stärnman",
          "anniversaire": "1997",
          "origine": "Sweden"
        },
        {
          "id": 64,
          "role": "Suport",
          "image": "https://d1u5p3l4wpay3k.cloudfront.net/smiteesports_gamepedia_en/thumb/4/4c/Emilzyobey.png/220px-Emilzyobey.png?version=bbb9513e562b7dd58c7d9641b0e195c8",
          "pseudo": "EmilZy",
          "prenom": "Emil",
          "nom": "Schmidth Nielsen",
          "anniversaire": "28/05/2000",
          "origine": "Denmark"
        }
      ],
      "origine": "US",
      "palmares": [
        {
          "nomEvent": "SMITE World Championship 2018",
          "place": "3-4th",
          "date": "2018-01-07"
        },
        {
          "nomEvent": "SWC 2018 Wildcard",
          "place": "1st",
          "date": "2017-11-04"
        },
        {
          "nomEvent": "2017 EU SPL Fall Gauntlet",
          "place": "1st",
          "date": "2017-10-15"
        }
      ]
    },
    {
      "id": 7,
      "nom": "Obey Alliance",
      "logo": "https://d1u5p3l4wpay3k.cloudfront.net/smiteesports_gamepedia_en/thumb/8/88/Obey_Alliancelogo_square.png/300px-Obey_Alliancelogo_square.png?version=03cd9de0eb77a872e636679b638401e7",
      "joueurs": [
        {
          "id": 70,
          "role": "Solo",
          "image": "https://d1u5p3l4wpay3k.cloudfront.net/smiteesports_gamepedia_en/thumb/f/fa/Orbit_Xaliea_2016_Fall.png/220px-Orbit_Xaliea_2016_Fall.png?version=326dae74167cd904822ec748cc5fe8c2",
          "pseudo": "Xaliea",
          "prenom": "Jeroen",
          "nom": "Klaver",
          "anniversaire": "15/08/1995",
          "origine": "Netherland"
        },
        {
          "id": 71,
          "role": "Jungle",
          "image": "https://d1u5p3l4wpay3k.cloudfront.net/smiteesports_gamepedia_en/thumb/e/e0/Obey_CaptainTwig_2016_Fall.png/220px-Obey_CaptainTwig_2016_Fall.png?version=fa96ba24bc1d254f5d3dc17e7d30c5b5",
          "pseudo": "CaptainTwig",
          "prenom": "Benjamin",
          "nom": "Knight",
          "anniversaire": "10/10/1994",
          "origine": "UK"
        },
        {
          "id": 72,
          "role": "Mid",
          "image": "https://d1u5p3l4wpay3k.cloudfront.net/smiteesports_gamepedia_en/thumb/f/f7/Obey_PrettyPriMe_2016_Fall.png/220px-Obey_PrettyPriMe_2016_Fall.png?version=4dc149aa556182726f14732fa4186d99",
          "pseudo": "PrettyPriMe",
          "prenom": "Emil",
          "nom": "Edström",
          "anniversaire": "14/09/1988",
          "origine": "Sweden"
        },
        {
          "id": 73,
          "role": "Hunter",
          "image": "https://d1u5p3l4wpay3k.cloudfront.net/smiteesports_gamepedia_en/thumb/f/fd/Obey_Ataraxia_2016_Fall.png/220px-Obey_Ataraxia_2016_Fall.png?version=b36c77dd2c1b75b24bf9a6e223751710",
          "pseudo": "Ataraxia",
          "prenom": "Nathaniel",
          "nom": "Mark",
          "anniversaire": "05/04/1997",
          "origine": "UK"
        },
        {
          "id": 74,
          "role": "Suport",
          "image": "https://d1u5p3l4wpay3k.cloudfront.net/smiteesports_gamepedia_en/thumb/a/ab/NRG_iRaffer_2016_Fall.png/220px-NRG_iRaffer_2016_Fall.png?version=fec354330ed4d72efcf51dcf581d6d6b",
          "pseudo": "iRaffer",
          "prenom": "Craig",
          "nom": "Rathbone",
          "anniversaire": "25/12/1989",
          "origine": "UK"
        }
      ],
      "origine": "US",
      "palmares": [
        {
          "nomEvent": "SMITE World Championship 2018",
          "place": "3-4th",
          "date": "2018-01-07"
        },
        {
          "nomEvent": "2017 EU Regional Championship",
          "place": "2nd",
          "date": "2017-11-05"
        },
        {
          "nomEvent": "2017 EU SPL Fall Season",
          "place": "1st",
          "date": "2017-10-07"
        }
      ]
    },
    {
      "id": 8,
      "nom": "SK Gaming",
      "logo": "https://d1u5p3l4wpay3k.cloudfront.net/smiteesports_gamepedia_en/thumb/9/9e/Sk_logo.png/300px-Sk_logo.png?version=a8be57595fb87154c16c04c3db9508fa",
      "joueurs": [
        {
          "id": 80,
          "role": "Solo",
          "image": "https://d1u5p3l4wpay3k.cloudfront.net/smiteesports_gamepedia_en/thumb/e/e2/DIG_Duck3y_2016_Fall.png/220px-DIG_Duck3y_2016_Fall.png?version=48993ad9fdb042920a0ffb185f3d9d6c",
          "pseudo": "Duck3y",
          "prenom": "James",
          "nom": "Heseltine",
          "anniversaire": "15/11/1998",
          "origine": "UK"
        },
        {
          "id": 81,
          "role": "Jungle",
          "image": "https://d1u5p3l4wpay3k.cloudfront.net/smiteesports_gamepedia_en/thumb/6/69/Faeles.png/220px-Faeles.png?version=252a3f1869d8485dcce7a2104ec7adf8",
          "pseudo": "Faeles",
          "prenom": "Daniel",
          "nom": "Evans",
          "anniversaire": "06/08/1994",
          "origine": "UK"
        },
        {
          "id": 82,
          "role": "Mid",
          "image": "https://d1u5p3l4wpay3k.cloudfront.net/smiteesports_gamepedia_en/thumb/0/0f/Orbit_Lawbster_2016_Fall.png/220px-Orbit_Lawbster_2016_Fall.png?version=f9e7415990b722eb1ced61ad7c8765c7",
          "pseudo": "Lawbster",
          "prenom": "Emil",
          "nom": "Evensen",
          "anniversaire": "14/12/1991",
          "origine": "Sweden"
        },
        {
          "id": 83,
          "role": "Hunter",
          "image": "https://d1u5p3l4wpay3k.cloudfront.net/smiteesports_gamepedia_en/thumb/c/c8/Orbit_Funballer_2016_Fall.png/220px-Orbit_Funballer_2016_Fall.png?version=5f6fccd228b45001331afa38fe82cc68",
          "pseudo": "Funballer",
          "prenom": "Kieran",
          "nom": "Patidar",
          "anniversaire": "11/08/1995",
          "origine": "UK"
        },
        {
          "id": 84,
          "role": "Suport",
          "image": "https://d1u5p3l4wpay3k.cloudfront.net/smiteesports_gamepedia_en/thumb/6/62/LFTOBadgah2016Spring.png/220px-LFTOBadgah2016Spring.png?version=70c787d467205fe5d249b60a37ce198e",
          "pseudo": "Badgah",
          "prenom": "Bo",
          "nom": "Katzenmaier",
          "anniversaire": "14/08/1995",
          "origine": "Norway"
        }
      ],
      "origine": "Germany",
      "palmares": [
        {
          "nomEvent": "SMITE World Championship 2015",
          "place": "4th",
          "date": "2015-01-11"
        },
        {
          "nomEvent": "2014 EU Regional Championship",
          "place": "2nd",
          "date": "2014-11-16"
        },
        {
          "nomEvent": "Season 1 EU SPL Regular Season",
          "place": "5th",
          "date": "2014-10-05"
        }
      ]
    },
    {
      "id": 9,
      "nom": "Team Dignitas",
      "logo": "https://d1u5p3l4wpay3k.cloudfront.net/smiteesports_gamepedia_en/thumb/d/da/Dignitas.png/300px-Dignitas.png?version=834427c8d28087d79a257eba50f46d45",
      "joueurs": [
        {
          "id": 90,
          "role": "Solo",
          "image": "https://d1u5p3l4wpay3k.cloudfront.net/smiteesports_gamepedia_en/thumb/7/71/Obey_Variety_2016_Fall.png/220px-Obey_Variety_2016_Fall.png?version=75aaac09eb2c268b8d8908ca16ca550e",
          "pseudo": "Variety",
          "prenom": "Harry",
          "nom": "Cumming",
          "anniversaire": "02/09/1997",
          "origine": "UK"
        },
        {
          "id": 91,
          "role": "Jungle",
          "image": "https://d1u5p3l4wpay3k.cloudfront.net/smiteesports_gamepedia_en/thumb/9/99/Orbit_QvoFred_2016_Fall.png/220px-Orbit_QvoFred_2016_Fall.png?version=48c06ca332fa45d1d43ecffef31774ff",
          "pseudo": "QvoFred",
          "prenom": "Anders",
          "nom": "Korsbo",
          "anniversaire": "05/05/1997",
          "origine": "Denmark"
        },
        {
          "id": 92,
          "role": "Mid",
          "image": "https://d1u5p3l4wpay3k.cloudfront.net/smiteesports_gamepedia_en/thumb/c/c9/CC_Zyrhoes_2016_Fall.png/220px-CC_Zyrhoes_2016_Fall.png?version=e5e5c042dc15de3e9e790cd1d37edb06",
          "pseudo": "Zyrhoes",
          "prenom": "Joakim",
          "nom": "Verngren",
          "anniversaire": "28/08/1990",
          "origine": "Sweden"
        },
        {
          "id": 93,
          "role": "Hunter",
          "image": "https://d1u5p3l4wpay3k.cloudfront.net/smiteesports_gamepedia_en/thumb/6/63/SnG_Arkkyl_2016_Fall.png/220px-SnG_Arkkyl_2016_Fall.png?version=ae9c6881635b295f0b4d03296a36e47b",
          "pseudo": "Arkkyl",
          "prenom": "Kenny",
          "nom": "Kuska",
          "anniversaire": "09/03/1995",
          "origine": "France"
        },
        {
          "id": 94,
          "role": "Suport",
          "image": "https://d1u5p3l4wpay3k.cloudfront.net/smiteesports_gamepedia_en/thumb/a/a5/Orbit_Trixtank_2016_Fall.png/220px-Orbit_Trixtank_2016_Fall.png?version=ea17c188d7d0835846ba063b9cc29098",
          "pseudo": "Trixtank",
          "prenom": "Jeppe",
          "nom": "Gylling",
          "anniversaire": "30/03/1997",
          "origine": "Norway"
        }
      ],
      "origine": "UK",
      "palmares": [
        {
          "nomEvent": "2017 EU Regional Championship",
          "place": "3-4th",
          "date": "2017-11-05"
        },
        {
          "nomEvent": "SWC 2018 Wildcard",
          "place": "5th",
          "date": "2017-11-04"
        },
        {
          "nomEvent": "2017 EU SPL Fall Season",
          "place": "2nd",
          "date": "2017-10-07"
        }
      ]
    },
    {
      "id": 10,
      "nom": "Team RivaL",
      "logo": "https://d1u5p3l4wpay3k.cloudfront.net/smiteesports_gamepedia_en/thumb/0/0a/TeamRival.png/300px-TeamRival.png?version=3f6abd6aa1e6dce98fbce4dd6e4b1b65",
      "joueurs": [
        {
          "id": 100,
          "role": "Solo",
          "image": "https://d1u5p3l4wpay3k.cloudfront.net/smiteesports_gamepedia_en/thumb/6/6e/Cyclone_Deathwalker_2016_Fall.png/220px-Cyclone_Deathwalker_2016_Fall.png?version=170d97f746bbe5653b3f8777f79b41a9",
          "pseudo": "Deathwalker",
          "prenom": "Adrian",
          "nom": "Benko",
          "anniversaire": "???",
          "origine": "Croatia"
        },
        {
          "id": 101,
          "role": "Jungle",
          "image": "https://d1u5p3l4wpay3k.cloudfront.net/smiteesports_gamepedia_en/thumb/4/4a/Cyclone_iceicebabyy_2016_Fall.png/220px-Cyclone_iceicebabyy_2016_Fall.png?version=8661c8a41b98ecfd65542aea021a67eb",
          "pseudo": "iceicebabyy",
          "prenom": "Aleksandar",
          "nom": "Zahariev",
          "anniversaire": "1995",
          "origine": "Bulgaria"
        },
        {
          "id": 102,
          "role": "Mid",
          "image": "https://d1u5p3l4wpay3k.cloudfront.net/smiteesports_gamepedia_en/thumb/2/28/Cyclone_Wlfy_2016_Fall.png/220px-Cyclone_Wlfy_2016_Fall.png?version=99e3b9655ae80897eefe1e8f89d60354",
          "pseudo": "Wlfy",
          "prenom": "Alexandru",
          "nom": "Lefterică",
          "anniversaire": "11/08/1997",
          "origine": "Romania"
        },
        {
          "id": 103,
          "role": "Hunter",
          "image": "https://d1u5p3l4wpay3k.cloudfront.net/smiteesports_gamepedia_en/thumb/c/cf/Cyclone_VoteNBK_2016_Fall.png/220px-Cyclone_VoteNBK_2016_Fall.png?version=71f7676ae8957f3bda0e3914feeb0037",
          "pseudo": "Vote",
          "prenom": "Liam",
          "nom": "Shanks",
          "anniversaire": "1997",
          "origine": "UK"
        },
        {
          "id": 104,
          "role": "Suport",
          "image": "https://d1u5p3l4wpay3k.cloudfront.net/smiteesports_gamepedia_en/thumb/5/50/Cyclone_KaLas_2016_Fall.png/220px-Cyclone_KaLas_2016_Fall.png?version=0f4489bb908edef1a9a2da29d59e1cd7",
          "pseudo": "KaLaS",
          "prenom": "Petar",
          "nom": "Matejić",
          "anniversaire": "???",
          "origine": "Croatia"
        }
      ],
      "origine": "NA",
      "palmares": [
        {
          "nomEvent": "SMITE World Championship 2018",
          "place": "2nd",
          "date": "2018-01-07"
        },
        {
          "nomEvent": "2017 EU Regional Championship",
          "place": "1st",
          "date": "2017-11-05"
        },
        {
          "nomEvent": "2017 EU SPL Fall Season",
          "place": "3rd",
          "date": "2017-10-07"
        }
      ]
    },
    {
      "id": 11,
      "nom": "Luminosity Gaming",
      "logo": "https://d1u5p3l4wpay3k.cloudfront.net/smiteesports_gamepedia_en/thumb/6/64/Luminosity_Gaming.png/300px-Luminosity_Gaming.png?version=c0943858cc9eed08568228f7ec237130",
      "joueurs": [
        {
          "id": 110,
          "role": "Solo",
          "image": "https://d1u5p3l4wpay3k.cloudfront.net/smiteesports_gamepedia_en/thumb/6/6e/Cyclone_Deathwalker_2016_Fall.png/220px-Cyclone_Deathwalker_2016_Fall.png?version=170d97f746bbe5653b3f8777f79b41a9",
          "pseudo": "Deathwalker",
          "prenom": "Adrian",
          "nom": "Benko",
          "anniversaire": "???",
          "origine": "Croatia"
        },
        {
          "id": 111,
          "role": "Jungle",
          "image": "https://d1u5p3l4wpay3k.cloudfront.net/smiteesports_gamepedia_en/thumb/4/4a/Cyclone_iceicebabyy_2016_Fall.png/220px-Cyclone_iceicebabyy_2016_Fall.png?version=8661c8a41b98ecfd65542aea021a67eb",
          "pseudo": "iceicebabyy",
          "prenom": "Aleksandar",
          "nom": "Zahariev",
          "anniversaire": "1995",
          "origine": "Bulgaria"
        },
        {
          "id": 112,
          "role": "Mid",
          "image": "https://d1u5p3l4wpay3k.cloudfront.net/smiteesports_gamepedia_en/thumb/2/28/Cyclone_Wlfy_2016_Fall.png/220px-Cyclone_Wlfy_2016_Fall.png?version=99e3b9655ae80897eefe1e8f89d60354",
          "pseudo": "Wlfy",
          "prenom": "Alexandru",
          "nom": "Lefterică",
          "anniversaire": "11/08/1997",
          "origine": "Romania"
        },
        {
          "id": 113,
          "role": "Hunter",
          "image": "https://d1u5p3l4wpay3k.cloudfront.net/smiteesports_gamepedia_en/thumb/c/cf/Cyclone_VoteNBK_2016_Fall.png/220px-Cyclone_VoteNBK_2016_Fall.png?version=71f7676ae8957f3bda0e3914feeb0037",
          "pseudo": "Vote",
          "prenom": "Liam",
          "nom": "Shanks",
          "anniversaire": "1997",
          "origine": "UK"
        },
        {
          "id": 114,
          "role": "Suport",
          "image": "https://d1u5p3l4wpay3k.cloudfront.net/smiteesports_gamepedia_en/thumb/5/50/Cyclone_KaLas_2016_Fall.png/220px-Cyclone_KaLas_2016_Fall.png?version=0f4489bb908edef1a9a2da29d59e1cd7",
          "pseudo": "KaLaS",
          "prenom": "Petar",
          "nom": "Matejić",
          "anniversaire": "???",
          "origine": "Croatia"
        }
      ],
      "origine": "Canada",
      "palmares": [
        {
          "nomEvent": "SMITE World Championship 2018",
          "place": "5-8th",
          "date": "2018-01-07"
        },
        {
          "nomEvent": "2017 NA Regional Championship",
          "place": "2nd",
          "date": "2017-11-05"
        },
        {
          "nomEvent": "2017 NA SPL Fall Season",
          "place": "2nd",
          "date": "2017-10-09"
        }
      ]
    }
  ],
  "match": [
    {
      "equipe1": 6,
      "equipe2": 10,
      "pronostic1": 16,
      "pronostic2": 15,
      "id": 1,
      "uri": "http://localhost:3000/match/1",
      "heure": "18h30"
    },
    {
      "equipe1": 8,
      "equipe2": 5,
      "pronostic1": 14,
      "pronostic2": 15,
      "id": 2,
      "uri": "http://localhost:3000/match/2",
      "heure": "13h45"
    },
    {
      "equipe1": 9,
      "equipe2": 5,
      "pronostic1": 11,
      "pronostic2": 6,
      "id": 3,
      "uri": "http://localhost:3000/match/3",
      "heure": "13h00"
    },
    {
      "equipe1": 10,
      "equipe2": 7,
      "pronostic1": 46,
      "pronostic2": 6,
      "id": 4,
      "uri": "http://localhost:3000/match/4",
      "heure": "15h30"
    },
    {
      "equipe1": 7,
      "equipe2": 9,
      "pronostic1": 9,
      "pronostic2": 7,
      "id": 5,
      "uri": "http://localhost:3000/match/5",
      "heure": "17h15"
    },
    {
      "equipe1": 10,
      "equipe2": 9,
      "pronostic1": 7,
      "pronostic2": 5,
      "id": 6,
      "uri": "http://localhost:3000/match/6",
      "heure": "15h00"
    },
    {
      "equipe1": 7,
      "equipe2": 5,
      "pronostic1": 7,
      "pronostic2": 2,
      "id": 7,
      "uri": "http://localhost:3000/match/7",
      "heure": "14h30"
    },
    {
      "equipe1": 6,
      "equipe2": 7,
      "pronostic1": 7,
      "pronostic2": 6,
      "id": 8,
      "uri": "http://localhost:3000/match/8",
      "heure": "16h00"
    },
    {
      "equipe1": 7,
      "equipe2": 8,
      "pronostic1": 14,
      "pronostic2": 3,
      "id": 9,
      "uri": "http://localhost:3000/match/9",
      "heure": "16h30"
    },
    {
      "equipe1": 10,
      "equipe2": 8,
      "pronostic1": 4,
      "pronostic2": 4,
      "id": 10,
      "uri": "http://localhost:3000/match/10",
      "heure": "13h00"
    }
  ]
}